<?xml version="1.0" standalone="no"?>
<!DOCTYPE svg PUBLIC "-//W3C//DTD SVG 20010904//EN"
 "http://www.w3.org/TR/2001/REC-SVG-20010904/DTD/svg10.dtd">
<svg version="1.0" xmlns="http://www.w3.org/2000/svg"
 width="800.000000pt" height="600.000000pt" viewBox="0 0 800.000000 600.000000"
 preserveAspectRatio="xMidYMid meet">
<metadata>
Created by potrace 1.15, written by Peter Selinger 2001-2017
</metadata>
<g transform="translate(0.000000,600.000000) scale(0.100000,-0.100000)"
fill="#000000" stroke="none">
<path d="M3336 3999 c-351 -71 -640 -130 -642 -131 -1 -2 18 -382 44 -844 l47
-841 610 -305 610 -306 595 299 c327 164 601 302 608 307 9 6 24 222 57 818
24 445 46 824 49 842 3 17 4 32 3 32 -1 0 -295 59 -652 130 -357 72 -659 130
-670 129 -11 -1 -308 -59 -659 -130z m1293 -4 c343 -69 626 -127 629 -130 3
-2 -1 -7 -9 -10 -48 -17 -1231 -335 -1247 -335 -29 0 -1235 330 -1247 341 -6
6 -6 9 0 9 6 1 285 57 620 124 336 68 615 124 620 125 6 1 291 -55 634 -124z
m-1264 -318 l630 -172 3 -945 c1 -528 -2 -948 -7 -953 -5 -5 -263 119 -600
287 -325 163 -591 297 -592 299 -4 9 -93 1649 -90 1653 8 8 26 3 656 -169z
m1935 156 c0 -67 -91 -1623 -95 -1634 -5 -13 -1164 -599 -1185 -599 -7 0 -10
325 -10 950 0 896 1 951 18 957 34 14 1237 342 1255 342 10 1 17 -6 17 -16z"/>
</g>
</svg>
